992
-128 -96 752
-344 -168 464
16 -136 -416 400
992
-520 464
-504 -112 -136 -8 200
-592 -40 -104 8 -16 192
992
-120 864
568 -96 312
-112 872
992
-792 192
-128 -144 400 -48 240
992
-8 -64 8 -664 -24 184
-240 -464 -56 208
-56 16 -32 8 -232 608
